<?xml version="1.0" encoding="iso-8859-1"?>
<!-- Generator: Adobe Illustrator 16.0.0, SVG Export Plug-In . SVG Version: 6.00 Build 0)  -->
<!DOCTYPE svg PUBLIC "-//W3C//DTD SVG 1.1//EN" "http://www.w3.org/Graphics/SVG/1.1/DTD/svg11.dtd">
<svg version="1.1" id="Capa_1" xmlns="http://www.w3.org/2000/svg" xmlns:xlink="http://www.w3.org/1999/xlink" x="0px" y="0px"
	 width="940.9px" height="940.9px" viewBox="0 0 940.9 940.9" style="enable-background:new 0 0 940.9 940.9;" xml:space="preserve"
	>
<g>
	<path d="M890.9,189.45H50c-27.6,0-50,22.4-50,50v462c0,27.6,22.4,50,50,50h840.9c27.6,0,50-22.4,50-50v-462
		C940.9,211.85,918.5,189.45,890.9,189.45z M351.4,553.15c0,15.7-8.1,29.6-20.3,37.6v-35.2c0-27.1-21.9-49-49-49h-19.5l-34.2,55
		l-11.9-21.1l21-33.9h-25.9h-25.9l21,33.9l-11.9,21.1l-34.2-55h-19.5c-27.1,0-49,21.9-49,49v32.2c-9.9-8.3-16.2-20.7-16.2-34.6v-249
		c0-24.9,20.1-45,45-45h185.4c24.899,0,45,20.1,45,45v249H351.4z M868.9,638.05c0,13.801-11.201,25-25,25h-400
		c-13.8,0-25-11.199-25-25v-2.6c0-13.8,11.2-25,25-25h400c13.799,0,25,11.2,25,25V638.05z M868.9,471.75c0,13.8-11.201,25-25,25
		h-400c-13.8,0-25-11.2-25-25v-2.6c0-13.8,11.2-25,25-25h400c13.799,0,25,11.2,25,25V471.75z M868.9,305.45c0,13.8-11.201,25-25,25
		h-400c-13.8,0-25-11.2-25-25v-2.6c0-13.8,11.2-25,25-25h400c13.799,0,25,11.2,25,25V305.45z"/>
	<path d="M272.5,343.15h-59.9c-38.9,0-71.8,31.8-72,70.7c-0.1,39.399,31.8,71.3,71.2,71.199c38.9-0.1,70.7-33.1,70.7-72V353.15
		C282.5,347.65,278.1,343.15,272.5,343.15z"/>
</g>
<g>
</g>
<g>
</g>
<g>
</g>
<g>
</g>
<g>
</g>
<g>
</g>
<g>
</g>
<g>
</g>
<g>
</g>
<g>
</g>
<g>
</g>
<g>
</g>
<g>
</g>
<g>
</g>
<g>
</g>
</svg>
