<?xml version="1.0" encoding="utf-8"?>
<!-- Generator: Adobe Illustrator 20.0.0, SVG Export Plug-In . SVG Version: 6.00 Build 0)  -->
<svg version="1.1" id="Layer_1" xmlns="http://www.w3.org/2000/svg" xmlns:xlink="http://www.w3.org/1999/xlink" x="0px" y="0px"
	 viewBox="0 0 80 80" enable-background="new 0 0 80 80" xml:space="preserve">
<g id="_x36_5vuN4_1_">
	<g>
		<path fill="currentColor" d="M30.2,15.8c-2.8,0.2-7.1,0.3-11.3,0.9c-4,0.5-7.9,1.5-11.8,2.5c-2.3,0.6-3.8,3-3.6,5c0.2,2.2,2,4.3,4.2,4.6
			c1.1,0.1,2.3-0.1,3.5-0.4c10.6-2.8,21.3-3,32.1-1.7c9.2,1.1,18,3.4,26.1,8c2.3,1.3,5.2,0.3,6.5-2c1.3-2.2,0.7-4.9-1.4-6.5
			c-0.9-0.7-1.9-1.2-2.9-1.7C59,18.1,45.5,16.1,30.2,15.8z M30.2,33.3c-6.4,0.1-13,0.8-19.4,2.7c-3.1,0.9-4.4,3-3.7,5.5
			c0.7,2.4,3,3.4,5.9,2.6c11.2-3,22.4-3,33.6-0.4c5.8,1.4,11.2,3.6,16.4,6.5c2.1,1.2,4.4,0.5,5.6-1.4c1.2-1.9,0.6-4.3-1.3-5.7
			c-0.8-0.6-1.8-1.1-2.7-1.6C54,35.8,42.4,33.6,30.2,33.3z M30.1,49.9c-1.6,0.1-4.3,0.1-7,0.5c-3.7,0.5-7.4,1.1-11.1,1.9
			c-2.2,0.5-3.3,2.2-2.8,4.1c0.4,1.8,2,2.8,4.2,2.5c0.4,0,0.8-0.2,1.2-0.3c9.5-2,19.2-2.9,28.7-0.5c4.8,1.2,9.3,3.4,13.9,5.4
			c2.4,1,4.2,0.9,5.3-0.9c1.1-1.8,0.4-3.7-1.8-5c-0.8-0.5-1.6-0.9-2.4-1.3C49.8,51.9,40.7,50.1,30.1,49.9z"/>
	</g>
</g>
</svg>
