<?xml version="1.0" encoding="utf-8"?>
<!-- Generator: Adobe Illustrator 20.0.0, SVG Export Plug-In . SVG Version: 6.00 Build 0)  -->
<svg version="1.1" id="Layer_1" xmlns="http://www.w3.org/2000/svg" xmlns:xlink="http://www.w3.org/1999/xlink" x="0px" y="0px"
	 viewBox="0 0 100 100" enable-background="new 0 0 100 100" xml:space="preserve">
<polygon fill="currentColor" points="53.1,13.1 46.9,13.1 46.9,46.9 13.1,46.9 13.1,53.1 46.9,53.1 46.9,86.9 53.1,86.9 53.1,53.1 86.9,53.1 86.9,46.9 
	53.1,46.9 "/>
</svg>
