<?xml version="1.0" encoding="utf-8"?>
<!-- Generator: Adobe Illustrator 20.0.0, SVG Export Plug-In . SVG Version: 6.00 Build 0)  -->
<svg version="1.1" id="Layer_1" xmlns="http://www.w3.org/2000/svg" xmlns:xlink="http://www.w3.org/1999/xlink" x="0px" y="0px"
	 viewBox="0 0 80 80" enable-background="new 0 0 80 80" xml:space="preserve">
<g>
	<g>
		<path fill="currentColor" d="M39.9,69.4c-17.3,0-31.3-9.4-31.3-21s14.1-21,31.3-21s31.3,9.4,31.3,21S57.2,69.4,39.9,69.4z M39.9,29.9
			c-15.9,0-28.8,8.3-28.8,18.5c0,10.2,12.9,18.5,28.8,18.5s28.8-8.3,28.8-18.5C68.8,38.2,55.8,29.9,39.9,29.9z"/>
	</g>
	<g>
		<path fill="currentColor" d="M64.3,23.7c-3.6,0-6.6-2.9-6.6-6.6c0-3.6,2.9-6.6,6.6-6.6c3.6,0,6.6,2.9,6.6,6.6C70.8,20.7,67.9,23.7,64.3,23.7z
			 M64.3,13.1c-2.2,0-4,1.8-4,4c0,2.2,1.8,4,4,4c2.2,0,4-1.8,4-4C68.3,14.9,66.5,13.1,64.3,13.1z"/>
	</g>
	<g>
		<path fill="currentColor" d="M9.3,46.2c-2.6-1.4-4.1-4.1-4.1-7c0-4.4,3.6-8,8-8c2.1,0,4.2,0.8,5.7,2.4l-1.8,1.8c-1-1-2.4-1.6-3.9-1.6
			c-3,0-5.5,2.5-5.5,5.5c0,2,1.1,3.8,2.8,4.8L9.3,46.2z"/>
	</g>
	<g>
		<path fill="currentColor" d="M70.7,46.2L69.5,44c1.8-1,2.8-2.8,2.8-4.8c0-3-2.5-5.5-5.5-5.5c-1.5,0-2.9,0.6-3.9,1.6l-1.8-1.8c1.5-1.5,3.5-2.4,5.7-2.4
			c4.4,0,8,3.6,8,8C74.9,42.1,73.3,44.8,70.7,46.2z"/>
	</g>
	<g>
		<circle fill="currentColor" cx="30" cy="44.7" r="4.9"/>
	</g>
	<g>
		<circle fill="currentColor" cx="50.6" cy="44.7" r="4.9"/>
	</g>
	<g>
		<path fill="currentColor" d="M40.2,29.3c-0.1,0-0.3,0-0.4-0.1c-0.7-0.2-1-1-0.8-1.6l5.7-16.2l14,3.3c0.7,0.2,1.1,0.8,0.9,1.5c-0.2,0.7-0.8,1.1-1.5,0.9
			l-11.8-2.8l-5,14.1C41.2,29,40.7,29.3,40.2,29.3z"/>
	</g>
	<g>
		<path fill="currentColor" d="M39.9,61.8c-8,0-11.3-3.7-11.4-3.8c-0.5-0.5-0.4-1.3,0.1-1.8c0.5-0.4,1.3-0.4,1.8,0.1c0.1,0.1,2.8,2.9,9.5,2.9
			c6.8,0,9.9-3,9.9-3c0.5-0.5,1.3-0.5,1.8,0c0.5,0.5,0.5,1.3,0,1.8C51.4,58.2,47.9,61.8,39.9,61.8z"/>
	</g>
</g>
</svg>
