<?xml version="1.0" encoding="utf-8"?>
<!-- Generator: Adobe Illustrator 21.0.1, SVG Export Plug-In . SVG Version: 6.00 Build 0)  -->
<svg version="1.1" id="Layer_1" xmlns="http://www.w3.org/2000/svg" xmlns:xlink="http://www.w3.org/1999/xlink" x="0px" y="0px"
	 viewBox="0 0 132.8 100" style="enable-background:new 0 0 132.8 100;" xml:space="preserve">
<style type="text/css">
	.st0{fill:#FFFFFF;}
</style>
<g>
	<path class="st0" d="M0,92c21.4-11.6,34.8-26.8,39.7-46.4c-5.4,5.4-11.2,7.6-17.9,7.6c-9.8,0-17.4-9.4-17.4-21
		C4.5,14.3,19.2,0,37.1,0c14.3,0,24.1,12.1,24.1,28.6c0,29-23.2,58-57.1,71.4L0,92z M71.4,92c21.4-11.6,34.8-26.8,39.7-46.4
		c-5.4,5.4-11.2,7.6-17.9,7.6c-9.8,0-17.4-9.4-17.4-21C75.9,14.3,90.6,0,108.5,0c14.3,0,24.1,12.1,24.1,28.6c0,29-23.2,58-57.1,71.4
		L71.4,92z"/>
</g>
</svg>
