<?xml version="1.0" encoding="utf-8"?>
<!-- Generator: Adobe Illustrator 21.1.0, SVG Export Plug-In . SVG Version: 6.00 Build 0)  -->
<svg version="1.1" id="c2edca23-343b-4389-ab0e-31a15eb38ddf"
	 xmlns="http://www.w3.org/2000/svg" xmlns:xlink="http://www.w3.org/1999/xlink" x="0px" y="0px" viewBox="0 0 1138 180.5"
	 style="enable-background:new 0 0 1138 180.5;" xml:space="preserve">
<style type="text/css">
	.st0{fill:#002C74;}
	.st1{fill:#FFF;}
</style>
<title>DS_blue-arrow</title>
<polygon class="st0" points="87.3,180.5 1138,180.5 1138,0 87.3,0 0,88.1 "/>
<path d="M12.6,33"/>
<path class="st1" d="M136.3,98c3.8,3.5,8.8,5.9,13.7,5.9c5.9,0,9.1-2.6,9.1-6.7c0-4.3-3.4-5.7-8.2-7.7l-7.1-3.1
	c-5.2-2.2-10.6-6.2-10.6-13.9c0-8.3,7.4-14.8,17.5-14.8c6,0,11.8,2.4,16.2,6.6l-4.8,5.9c-3.1-2.9-7.2-4.5-11.4-4.5
	c-5,0-8.2,2.3-8.2,6.2c0,4.1,4,5.6,8.3,7.4l7,3c6.2,2.6,10.6,6.6,10.6,14.2c0,8.5-7,15.5-18.8,15.5c-7,0-13.8-2.8-18.8-7.7L136.3,98
	z"/>
<path class="st1" d="M177.3,54.5h9.2v14.6l-0.3,7.6c3.3-3.1,7.2-5.9,12.6-5.9c8.4,0,12.1,5.7,12.1,15.6v24.7h-9.2V87.6
	c0-6.5-1.8-8.9-6.2-8.9c-3.5,0-5.7,1.7-9,4.9v27.5h-9.2L177.3,54.5z"/>
<path class="st1" d="M243.5,85.9c-0.1-4.2-1.8-7.7-7.1-7.7c-3.9,0-7.6,1.8-11.1,3.9l-3.4-6.2c4.8-3.2,10.3-5,16.1-5.1
	c9.9,0,14.7,6,14.7,17v23.3h-7.5l-0.7-4.3h-0.2c-3.5,3-7.5,5.3-12.2,5.3c-6.9,0-11.7-4.6-11.7-11.5
	C220.3,92.1,227.4,87.7,243.5,85.9z M234.9,104.8c3.2,0,5.7-1.6,8.6-4.3v-8.8c-10.7,1.4-14.2,4.2-14.2,8.1
	C229.3,103.3,231.6,104.8,234.9,104.8L234.9,104.8z"/>
<path class="st1" d="M263.9,71.7h7.6l0.6,7h0.3c2.8-5.1,7-7.9,11.1-7.9c1.5-0.1,3.1,0.2,4.5,0.8l-1.6,8c-1.3-0.4-2.7-0.6-4.1-0.6
	c-3.1,0-6.9,2.2-9.3,8.1v24h-9.2L263.9,71.7z"/>
<path class="st1" d="M308.6,70.8c10.7,0,16.3,7.7,16.3,18.7c0,1.5-0.1,2.9-0.4,4.3h-25c0.8,7.1,5.3,11.1,11.6,11.1
	c3.3,0,6.4-1,9.1-2.9l3.1,5.8c-4,2.7-8.7,4.2-13.5,4.2c-10.9,0-19.4-7.6-19.4-20.6C290.5,78.6,299.3,70.8,308.6,70.8z M316.8,87.9
	c0-6.2-2.6-10-8-10c-4.6,0-8.7,3.5-9.5,10H316.8z"/>
<path class="st1" d="M352.1,119.8c4.2,0,6.6-2.8,7.9-6.7l0.7-2.5l-15.5-38.9h9.4l6.8,19.3c1.1,3.5,2.2,7.4,3.5,11.1h0.3
	c1-3.6,2-7.5,3-11.1l5.9-19.3h8.9l-14.3,41.1c-3.3,8.9-7.4,14.4-16,14.4c-1.7,0-3.5-0.2-5.1-0.8l1.7-7.2
	C350.1,119.6,351.1,119.8,352.1,119.8z"/>
<path class="st1" d="M405.4,70.8c9.9,0,18.8,7.5,18.8,20.7s-8.9,20.6-18.8,20.6s-18.7-7.5-18.7-20.6S395.6,70.8,405.4,70.8z
	 M405.4,104.5c5.8,0,9.3-5.2,9.3-13.1s-3.5-13.1-9.3-13.1s-9.2,5.2-9.2,13.1S399.6,104.5,405.4,104.5z"/>
<path class="st1" d="M432.9,71.7h9.2v23.5c0,6.5,1.8,8.9,6.1,8.9c3.5,0,5.8-1.6,8.7-5.5V71.7h9.2v39.4h-7.5l-0.7-5.8h-0.2
	c-3.5,4.1-7.3,6.7-12.7,6.7c-8.4,0-12.1-5.7-12.1-15.6L432.9,71.7z"/>
<path class="st1" d="M526.2,71.7h7.6l0.6,7h0.3c2.8-5.1,7-7.9,11.1-7.9c1.5-0.1,3.1,0.2,4.5,0.8l-1.6,8c-1.3-0.4-2.7-0.6-4.1-0.6
	c-3.1,0-6.9,2.2-9.3,8.1v24h-9.2L526.2,71.7z"/>
<path class="st1" d="M477.4,71.7h7.6l0.6,7h0.3c2.8-5.1,7-7.9,11.1-7.9c1.5-0.1,3.1,0.2,4.5,0.8l-1.6,8c-1.3-0.4-2.7-0.6-4.1-0.6
	c-3.1,0-6.9,2.2-9.3,8.1v24h-9.2L477.4,71.7z"/>
<path class="st1" d="M570.9,70.8c10.7,0,16.3,7.7,16.3,18.7c0,1.5-0.1,2.9-0.4,4.3h-25c0.8,7.1,5.3,11.1,11.6,11.1
	c3.3,0,6.4-1,9.1-2.9l3.1,5.8c-4,2.7-8.7,4.2-13.5,4.2c-10.9,0-19.4-7.6-19.4-20.6C552.8,78.6,561.7,70.8,570.9,70.8z M579.1,87.9
	c0-6.2-2.6-10-8-10c-4.7,0-8.7,3.5-9.5,10H579.1z"/>
<path class="st1" d="M596.4,100.6c3.5,2.7,6.9,4.4,10.9,4.4c4.2,0,6.2-2,6.2-4.7c0-3.3-4.2-4.7-8.4-6.3c-5.2-1.9-11.1-4.9-11.1-11.5
	c0-6.9,5.5-11.8,14.3-11.8c4.8,0.1,9.4,1.7,13.1,4.7l-4.2,5.6c-2.7-2-5.5-3.4-8.7-3.4c-3.9,0-5.8,1.8-5.8,4.3c0,3,3.9,4.3,8.2,5.9
	c5.4,2,11.3,4.6,11.3,11.9c0,6.7-5.4,12.2-15.3,12.2c-5.4-0.1-10.7-2-14.9-5.4L596.4,100.6z"/>
<path class="st1" d="M630.1,71.7h9.2v23.5c0,6.5,1.8,8.9,6.1,8.9c3.5,0,5.8-1.6,8.7-5.5V71.7h9.2v39.4h-7.5l-0.7-5.8h-0.2
	c-3.5,4.1-7.3,6.7-12.7,6.7c-8.4,0-12.1-5.7-12.1-15.6L630.1,71.7z"/>
<path class="st1" d="M675.1,71.7h7.6l0.6,5.4h0.3c3.3-3.5,7.1-6.3,12-6.3c5.8,0,9.1,2.6,10.9,7c3.8-4,7.7-7,12.7-7
	c8.3,0,12.2,5.7,12.2,15.6v24.7h-9.3V87.6c0-6.5-1.9-8.9-6-8.9c-2.5,0-5.2,1.6-8.2,4.9v27.5h-9.2V87.6c0-6.5-1.9-8.9-6.1-8.9
	c-2.4,0-5.2,1.6-8.2,4.9v27.5h-9.2L675.1,71.7z"/>
<path class="st1" d="M758.2,70.8c10.7,0,16.3,7.7,16.3,18.7c0,1.5-0.1,2.9-0.4,4.3h-25c0.8,7.1,5.3,11.1,11.6,11.1
	c3.3,0,6.4-1,9.1-2.9l3.1,5.8c-4,2.7-8.7,4.2-13.5,4.2c-10.9,0-19.4-7.6-19.4-20.6C740.1,78.6,749,70.8,758.2,70.8z M766.4,87.9
	c0-6.2-2.6-10-8-10c-4.7,0-8.7,3.5-9.5,10H766.4z"/>
<path class="st1" d="M795.8,71.7h9.3l4.7,20.4c0.8,3.8,1.4,7.5,2.1,11.3h0.3c0.7-3.9,1.5-7.6,2.5-11.3l5.1-20.4h8.4l5.2,20.4
	c1,3.8,1.8,7.5,2.6,11.3h0.3c0.7-3.9,1.4-7.5,2.1-11.3l4.7-20.4h8.7l-10,39.4h-11l-4.6-18.4c-0.9-3.7-1.5-7.3-2.4-11.5h-0.3
	c-0.7,4.2-1.4,7.9-2.3,11.5l-4.5,18.3h-10.6L795.8,71.7z"/>
<path class="st1" d="M858.6,59.6c0-3.1,2.4-5.3,5.7-5.3s5.7,2.2,5.7,5.3s-2.4,5.2-5.7,5.2S858.6,62.7,858.6,59.6z M859.6,71.7h9.2
	v39.4h-9.2V71.7z"/>
<path class="st1" d="M882,79h-5.6v-6.9l6.1-0.4l1.1-10.7h7.7v10.7h10V79h-10v18.8c0,4.6,1.8,6.9,5.5,6.9c1.4,0,2.8-0.3,4.1-0.9
	l1.6,6.8c-2.6,0.9-5.3,1.4-8,1.4c-9.1,0-12.5-5.8-12.5-14.3L882,79z"/>
<path class="st1" d="M909.6,54.5h9.2v14.6l-0.3,7.6c3.3-3.1,7.2-5.9,12.6-5.9c8.4,0,12.1,5.7,12.1,15.6v24.7h-9.2V87.6
	c0-6.5-1.8-8.9-6.2-8.9c-3.5,0-5.7,1.7-9,4.9v27.5h-9.2L909.6,54.5z"/>
<path class="st1" d="M970.3,71.7h9.2v23.5c0,6.5,1.8,8.9,6.1,8.9c3.4,0,5.8-1.6,8.7-5.5V71.7h9.2v39.4H996l-0.7-5.8H995
	c-3.4,4.1-7.3,6.7-12.7,6.7c-8.4,0-12.1-5.7-12.1-15.6L970.3,71.7z"/>
<path class="st1" d="M1015.7,100.6c3.5,2.7,6.9,4.4,10.9,4.4c4.2,0,6.2-2,6.2-4.7c0-3.3-4.2-4.7-8.4-6.3
	c-5.2-1.9-11.1-4.9-11.1-11.5c0-6.9,5.5-11.8,14.3-11.8c4.8,0.1,9.4,1.7,13.1,4.7l-4.2,5.6c-2.7-2-5.5-3.4-8.7-3.4
	c-3.9,0-5.8,1.8-5.8,4.3c0,3,3.9,4.3,8.2,5.9c5.4,2,11.3,4.6,11.3,11.9c0,6.7-5.4,12.2-15.3,12.2c-5.4-0.1-10.7-2.1-14.9-5.5
	L1015.7,100.6z"/>
<path class="st1" d="M1055,99.5c3.5,0.2,6.1,3.2,5.9,6.6c-0.2,3.2-2.7,5.7-5.9,5.9c-3.5-0.2-6.1-3.2-5.9-6.6
	C1049.3,102.2,1051.8,99.7,1055,99.5z"/>
</svg>
